{
    "$schema": "http:\/\/json-schema.org\/draft-04\/schema#",
    "type": "object",
    "title": "bareme-indemnites-prudhomales",
    "description": "Données de référence pour le calcul des indemnités prud'homales",
    "properties": {
        "bareme": {
            "type": "array",
            "title": "Barème",
            "description": "Données de référence pour le calcul des indemnités prud'homales",
            "items": {
                "type": "object",
                "properties": {
                    "id": {
                        "type": "integer",
                        "title": "id [primarykey:1, autoincrement:81, type:integer]",
                        "description": "Identifiant interne"
                    },
                    "ancienneteSalarie": {
                        "type": "integer",
                        "title": "Ancienneté du salarié dans l'entreprise [type:integer]",
                        "description": "Ancienneté du salarié dans l'entreprise"
                    },
                    "indemniteminimalemoinsde11": {
                        "type": "string",
                        "title": "Indemnité minimale entreprise < 11 salariés (en mois de salaire brut) [type:text]",
                        "description": "Indemnité minimale entreprise < 11 salariés (en mois de salaire brut)"
                    },
                    "indemniteminimale11etplus": {
                        "type": "string",
                        "title": "Indemnité minimale entreprise >= 11 salariés (en mois de salaire brut) [type:text]",
                        "description": "Indemnité minimale entreprise >= 11 salariés (en mois de salaire brut)"
                    },
                    "indemnitemaximale": {
                        "type": "string",
                        "title": "Indemnités maxi (en mois de salaire brut) [type:text]",
                        "description": "Indemnités maxi (en mois de salaire brut)"
                    }
                },
                "required": [
                    "id",
                    "ancienneteSalarie",
                    "indemniteminimalemoinsde11",
                    "indemniteminimale11etplus",
                    "indemnitemaximale"
                ]
            }
        }
    },
    "required": [
        "bareme"
    ]
}