{
    "$schema": "http:\/\/json-schema.org\/draft-04\/schema#",
    "type": "object",
    "title": "gratification-stagiaire",
    "description": "Données de références pour le calcul de la gratification minimale d'un stagiaire",
    "properties": {
        "plafondHoraire": {
            "type": "array",
            "title": "Plafond horaire de la sécurité sociale",
            "description": "Plafond horaire de la sécurité sociale selon la période",
            "items": {
                "type": "object",
                "properties": {
                    "id": {
                        "type": "integer",
                        "title": "id [primarykey:1, autoincrement:9, type:integer]",
                        "description": "Identifiant interne"
                    },
                    "debutPeriode": {
                        "type": "string",
                        "title": "Début de la période [type:date]",
                        "description": "Début de la période de référence du plafond horaire",
                        "format": "date"
                    },
                    "finPeriode": {
                        "type": "string",
                        "title": "Fin de la période [type:date]",
                        "description": "Fin de la période de référence du plafond horaire",
                        "format": "date"
                    },
                    "plafond": {
                        "type": "number",
                        "title": "Plafond horaire [type:money]",
                        "description": "Plafond horaire en euros"
                    },
                    "source": {
                        "type": "string",
                        "title": "Texte de référence [type:text]",
                        "description": "Texte de référence (JO)"
                    }
                },
                "required": [
                    "id",
                    "debutPeriode",
                    "finPeriode",
                    "plafond"
                ]
            }
        },
        "TauxMinimal": {
            "type": "array",
            "title": "Taux minimal de la gratification",
            "description": "Taux minimal de la gratification selon la période",
            "items": {
                "type": "object",
                "properties": {
                    "id": {
                        "type": "integer",
                        "title": "id [primarykey:1, autoincrement:4, type:integer]",
                        "description": "Identifiant interne"
                    },
                    "debutPeriode": {
                        "type": "string",
                        "title": "Début de la période [type:date]",
                        "description": "Début de la période de référence du taux minimal",
                        "format": "date"
                    },
                    "finPeriode": {
                        "type": "string",
                        "title": "Fin de la période [type:date]",
                        "description": "Fin de la période de référence du taux minimal",
                        "format": "date"
                    },
                    "taux": {
                        "type": "number",
                        "title": "Taux minimal [type:percent]",
                        "description": "Taux minimal"
                    }
                },
                "required": [
                    "id",
                    "debutPeriode",
                    "finPeriode",
                    "taux"
                ]
            }
        }
    },
    "required": [
        "plafondHoraire",
        "TauxMinimal"
    ]
}