{
    "$schema": "http:\/\/json-schema.org\/draft-04\/schema#",
    "type": "object",
    "title": "quotite-saisissable",
    "description": "<div>Données de références pour le calcul de la quotite saisissable sur salaire<\/div><div>Table \"RSA forfaitaire pour une personne vivant seule\" est utilisée par le simulateur Pension alimentaire. Mises à jour le 1er avril et 1er septembre.<br><\/div>",
    "properties": {
        "RSASocle": {
            "type": "array",
            "title": "RSA forfaitaire pour une personne vivant seule",
            "description": "RSA forfaitaire pour une personne vivant seule",
            "items": {
                "type": "object",
                "properties": {
                    "id": {
                        "type": "integer",
                        "title": "id [primarykey:1, autoincrement:15, type:integer]",
                        "description": "Identifiant interne"
                    },
                    "montant": {
                        "type": "number",
                        "title": "Montant [type:money]",
                        "description": "Montant du RSA Socle"
                    },
                    "debut": {
                        "type": "string",
                        "title": "Début de la période de validité du montant [type:date]",
                        "description": "Début de la période de validité du montant du RSA Socle",
                        "format": "date"
                    },
                    "fin": {
                        "type": "string",
                        "title": "Fin de la période de validité du montant [type:date]",
                        "description": "Début de la période de validité du montant du RSA Socle",
                        "format": "date"
                    }
                },
                "required": [
                    "id",
                    "montant",
                    "debut"
                ]
            }
        },
        "baremeSaisie": {
            "type": "array",
            "title": "Barème des saisies sur rémunérations",
            "description": "Barème des saisies sur rémunérations",
            "items": {
                "type": "object",
                "properties": {
                    "id": {
                        "type": "integer",
                        "title": "id [primarykey:1, autoincrement:6, type:integer]",
                        "description": "Identifiant interne"
                    },
                    "fractionSaisissableMult": {
                        "type": "integer",
                        "title": "Numérateur fraction saisissable [type:integer]",
                        "description": "Numérateur de la fraction saisissable",
                        "default": 0
                    },
                    "fractionSaisissableDiv": {
                        "type": "integer",
                        "title": "Dénominateur fraction saisissable [type:integer]",
                        "description": "Dénominateur de la fraction saisissable"
                    },
                    "remuneration": {
                        "type": "number",
                        "title": "Rémunération annuelle [type:money]",
                        "description": "Rémunération annuelle"
                    }
                },
                "required": [
                    "fractionSaisissableMult",
                    "fractionSaisissableDiv",
                    "remuneration"
                ]
            }
        },
        "correctifPersonneACharge": {
            "type": "array",
            "title": "Correctifs annuels du barème de saisies sur salaire",
            "description": "Correctifs annuels du barème de saisies sur salaire par personne à charge",
            "items": {
                "type": "object",
                "properties": {
                    "id": {
                        "type": "integer",
                        "title": "id [primarykey:1, autoincrement:9, type:integer]",
                        "description": "Identifiant interne"
                    },
                    "montant": {
                        "type": "number",
                        "title": "Montant [type:money]",
                        "description": "Montant du correctif"
                    },
                    "debut": {
                        "type": "string",
                        "title": "Début de la période de validité du montant [type:date]",
                        "description": "Début de la période de validité du montant du correctif",
                        "format": "date"
                    },
                    "fin": {
                        "type": "string",
                        "title": "Fin de la période de validité du montant [type:date]",
                        "description": "Début de la période de validité du montant du correctif",
                        "format": "date"
                    }
                },
                "required": [
                    "id",
                    "montant",
                    "debut"
                ]
            }
        }
    },
    "required": [
        "RSASocle",
        "baremeSaisie",
        "correctifPersonneACharge"
    ]
}