{
    "$schema": "http:\/\/json-schema.org\/draft-04\/schema#",
    "type": "object",
    "title": "UnDeuxTroisZonage",
    "description": "",
    "properties": {
        "UnDeuxTroisZonage": {
            "type": "array",
            "title": "Table : Contenant les informations relatives au zonage des communes",
            "description": "",
            "items": {
                "type": "object",
                "properties": {
                    "id": {
                        "type": "integer",
                        "title": "id [primarykey:1, autoincrement:36681, type:text]",
                        "description": "Identifiant interne"
                    },
                    "codeInsee": {
                        "type": "string",
                        "title": "Code Insee [type:text]",
                        "description": ""
                    },
                    "nomCommune": {
                        "type": "string",
                        "title": "Nom Commune [type:text]",
                        "description": ""
                    },
                    "zoneGeographique": {
                        "type": "string",
                        "title": "Zone Géographique [type:text]",
                        "description": ""
                    }
                },
                "required": [
                    "id",
                    "codeInsee",
                    "nomCommune",
                    "zoneGeographique"
                ]
            }
        }
    },
    "required": [
        "UnDeuxTroisZonage"
    ]
}