{
    "$schema": "http:\/\/json-schema.org\/draft-04\/schema#",
    "type": "object",
    "title": "zonage-commune",
    "description": "<p>Zonage des communes de France<\/p>",
    "properties": {
        "zonageCommunes": {
            "type": "array",
            "title": "Table de zonage des commune de France",
            "description": "",
            "items": {
                "type": "object",
                "properties": {
                    "id": {
                        "type": "integer",
                        "title": "id [primarykey:1, autoincrement:36681, type:integer]",
                        "description": "Identifiant interne"
                    },
                    "codeInsee": {
                        "type": "string",
                        "title": "Code Insee [type:text]",
                        "description": "<p>Code Insee<\/p>"
                    },
                    "commune": {
                        "type": "string",
                        "title": "Nom de la commune [type:text]",
                        "description": "Nom de la commune"
                    },
                    "zone": {
                        "type": "string",
                        "title": "Zone géographique [type:text]",
                        "description": "<p>Zone géographique<\/p>"
                    },
                    "preavis": {
                        "type": "integer",
                        "title": "Préavis zone tendue [type:integer]",
                        "description": "<p>Préavis zone tendue<\/p>"
                    },
                    "frais": {
                        "type": "integer",
                        "title": "Frais locataire [type:integer]",
                        "description": "Frais de location imputable au locataire<\/p>"
                    }
                },
                "required": [
                    "id",
                    "codeInsee",
                    "commune",
                    "zone",
                    "preavis",
                    "frais"
                ]
            }
        }
    },
    "required": [
        "zonageCommunes"
    ]
}